<?xml version="1.0" encoding="utf-8"?>
<!-- Generator: Adobe Illustrator 23.0.0, SVG Export Plug-In . SVG Version: 6.00 Build 0)  -->
<svg version="1.1" id="Layer_1" xmlns="http://www.w3.org/2000/svg" xmlns:xlink="http://www.w3.org/1999/xlink" x="0px" y="0px"
	 viewBox="0 0 26 26" style="enable-background:new 0 0 26 26;" xml:space="preserve">
<style type="text/css">
	.st0{fill:#72B4B4;}
</style>
<g>
	<path class="st0" d="M25,17h-2c-0.6,0-1,0.4-1,1v2.5c0,0.3-0.2,0.5-0.5,0.5h-17C4.2,21,4,20.8,4,20.5V18c0-0.6-0.4-1-1-1H1
		c-0.6,0-1,0.4-1,1v6c0,0.6,0.4,1,1,1h24c0.6,0,1-0.4,1-1v-6C26,17.4,25.6,17,25,17z"/>
	<path class="st0" d="M12.3,16.7c0.2,0.2,0.5,0.3,0.7,0.3s0.5-0.1,0.7-0.3l6-6c0.2-0.2,0.3-0.4,0.3-0.7s-0.1-0.5-0.3-0.7l-1.4-1.4
		c-0.2-0.2-0.4-0.3-0.7-0.3c-0.3,0-0.5,0.1-0.7,0.3l-1,1C15.6,9.2,15,9,15,8.5V2c0-0.6-0.4-1-1-1h-2c-0.6,0-1,0.4-1,1v6.6
		C11,9,10.5,9.3,10.1,9l-1-1C8.9,7.8,8.7,7.7,8.4,7.7S7.9,7.8,7.7,8L6.3,9.4C6.1,9.6,6,9.8,6,10.1s0.1,0.5,0.3,0.7
		C6.3,10.8,12.3,16.7,12.3,16.7z"/>
</g>
</svg>
