<?xml version="1.0" encoding="utf-8"?>
<!-- Generator: Adobe Illustrator 14.0.0, SVG Export Plug-In . SVG Version: 6.00 Build 43363)  -->
<!DOCTYPE svg PUBLIC "-//W3C//DTD SVG 1.1//EN" "http://www.w3.org/Graphics/SVG/1.1/DTD/svg11.dtd">
<svg version="1.1" id="Capa_1" xmlns="http://www.w3.org/2000/svg" xmlns:xlink="http://www.w3.org/1999/xlink" x="0px" y="0px"
	 width="299.999px" height="300px" viewBox="-386 17 299.999 300" enable-background="new -386 17 299.999 300"
	 xml:space="preserve">
<g>
	<linearGradient id="SVGID_1_" gradientUnits="userSpaceOnUse" x1="-380.03" y1="170.4746" x2="-91.3967" y2="170.4746">
		<stop  offset="0" style="stop-color:#9FD3D3"/>
		<stop  offset="1" style="stop-color:#6949AA"/>
	</linearGradient>
	<path fill="url(#SVGID_1_)" d="M-120.257,73.449h-148.425c-16.728,0-22.5,6.656-25.65,14.165h-16.021
		c-11.25,0-43.614,26.034-69.677,48.239v12.756c21.292-18.204,61.402-51.541,70.031-51.541h11.81h1.855
		c-0.913,6.743-0.383,79.313-0.383,79.313c-2.562,1.002-11.456,7.069-11.456,7.069l0.029,0.088
		c-0.942,0.854-1.531,2.149-1.531,3.533c0,2.681,2.149,4.802,4.799,4.802c1.355,0,2.563-0.56,3.417-1.443
		c4.505-2.681,19.436-11.368,26.445-13.693c35.075-13.901,59.841-31.106,69.854-20.145c0,0,7.422,9.129-2.296,26.093
		c-10.219,11.721-32.983,12.25-51.566,32.688c-16.315,18.288-41.553,33.367-53.892,33.367h-67.116v9.423h68.146
		c7.303,0,23.795-7.187,25.768-9.012c0,0,3.27,9.424,13.429,11.516c10.161,2.062,19.82-2.769,22.793-4.595
		c0,0,19.938,25.709,42.231,0c-0.354,0.411,29.302,23.472,40.081-34.222h50.211c16.845,0,25.974-9.54,25.974-28.212v-86.972
		C-91.397,85.053-97.493,73.449-120.257,73.449z M-258.021,249.652c-9.424,3.622-18.465,2.445-19.526-5.653
		c0,0,15.491-10.867,25.534-21.97h3.328C-248.656,222.028-248.568,246.061-258.021,249.652z M-271.833,83.286h151.959
		c22.381-1.384,18.642,21.585,18.642,21.585h-185.915C-287.029,104.166-290.415,83.286-271.833,83.286z M-219.502,254.247
		c-11.102,7.186-16.344,2.68-24.354-6.242c0,0,4.889-10.985,4.8-25.945h27.859C-211.196,222.06-208.458,247.061-219.502,254.247z
		 M-187.872,248.005c-7.216,6.979-13.046,1.236-15.608-0.944c0,0,3.769-14.311,1.944-25.089h24.208
		C-177.301,221.972-177.477,235.9-187.872,248.005z M-101.115,193.11c0,12.723-4.241,19.466-14.283,19.466h-125.572
		c11.368-9.689,38.048-13.429,43.644-28.477c0,0,15.166-30.657-10.308-39.854c-20.232-3.623-28.772,7.724-79.543,27.396v-44.535
		h186.032v66.004H-101.115z"/>
</g>
</svg>
