<?xml version="1.0" encoding="utf-8"?>
<!-- Generator: Adobe Illustrator 14.0.0, SVG Export Plug-In . SVG Version: 6.00 Build 43363)  -->
<!DOCTYPE svg PUBLIC "-//W3C//DTD SVG 1.1//EN" "http://www.w3.org/Graphics/SVG/1.1/DTD/svg11.dtd">
<svg version="1.1" id="Layer_1" xmlns="http://www.w3.org/2000/svg" xmlns:xlink="http://www.w3.org/1999/xlink" x="0px" y="0px"
	 width="300px" height="89.451px" viewBox="0 0 300 89.451" enable-background="new 0 0 300 89.451" xml:space="preserve">
<g>
	<path fill-rule="evenodd" clip-rule="evenodd" fill="#9FD3D3" d="M30.653,64.564v-4.184h27.889v26.262c0,0-22.776,0-34.861,0
		c-12.084,0-20.218-13.479-20.218-25.332S13.92,36.211,24.61,36.211s32.536,0,36.72,0s4.881-4.183,4.881-6.972
		s-1.86-6.74-7.901-6.74v7.437H35.069V3.442c0,0,20.217,0,30.445,0c10.224,0,20.451,8.831,20.451,26.727
		C85.965,48.063,69,55.5,65.747,55.5c-3.254,0-30.678,0-36.024,0c-5.345,0-7.204,3.718-7.204,7.437c0,3.717,2.789,6.971,7.204,6.971
		c4.417,0,6.74,0,6.74,0v-5.112L30.653,64.564z"/>
	<g>
		<g>
			<path fill="#FFFFFF" d="M112.249,21.418c-1.766-1.009-3.766-1.512-6.003-1.512h-7.829v25.444h7.882
				c2.224-0.012,4.223-0.524,5.994-1.538c1.771-1.014,3.143-2.441,4.115-4.281c0.973-1.84,1.459-3.944,1.459-6.31v-1.171
				c0-2.364-0.495-4.476-1.486-6.334C115.392,23.858,114.014,22.425,112.249,21.418z M112.555,33.38
				c-0.023,2.493-0.578,4.41-1.661,5.75c-1.083,1.34-2.649,2.01-4.7,2.01h-2.534V24.152h2.585c2.063,0,3.629,0.668,4.702,2.001
				c1.072,1.334,1.608,3.294,1.608,5.881V33.38z M128.405,38.203l-3.513-11.761h-5.435l6.624,18.962l-0.594,1.557
				c-0.269,0.678-0.639,1.161-1.11,1.454c-0.472,0.292-1.186,0.436-2.141,0.436l-0.769-0.017v3.824
				c0.757,0.222,1.503,0.332,2.236,0.332c2.599,0,4.462-1.233,5.593-3.701l0.419-0.997l7.602-21.848h-5.417L128.405,38.203z
				 M149.55,26.093c-2.272,0-4.083,0.845-5.436,2.533l-0.157-2.184h-4.753v18.909h5.05V31.985c0.711-1.213,1.778-1.821,3.199-1.821
				c1.083,0,1.857,0.243,2.324,0.727c0.466,0.484,0.699,1.265,0.699,2.339v12.121h5.051V33.135
				c-0.023-2.342-0.525-4.101-1.503-5.277C153.047,26.681,151.555,26.093,149.55,26.093z M167.271,33.798
				c-2.809,0.013-4.953,0.555-6.439,1.625c-1.485,1.073-2.229,2.611-2.229,4.613c0,1.632,0.609,2.983,1.827,4.055
				s2.752,1.608,4.605,1.608c1.958,0,3.548-0.681,4.771-2.045c0.104,0.676,0.272,1.24,0.507,1.695h5.101v-0.297
				c-0.488-0.92-0.738-2.279-0.751-4.073v-8.195c0-2.121-0.685-3.767-2.051-4.938c-1.371-1.17-3.22-1.755-5.55-1.755
				c-1.539,0-2.924,0.265-4.16,0.795c-1.233,0.529-2.19,1.261-2.865,2.192c-0.677,0.932-1.014,1.946-1.014,3.041h5.051
				c0-0.711,0.241-1.271,0.725-1.678c0.482-0.408,1.15-0.611,2.001-0.611c0.966,0,1.675,0.262,2.123,0.786
				c0.448,0.524,0.672,1.224,0.672,2.098v1.083H167.271z M169.594,40.002c-0.302,0.56-0.768,1.005-1.397,1.337
				c-0.629,0.333-1.316,0.498-2.062,0.498c-0.771,0-1.375-0.204-1.817-0.611c-0.443-0.408-0.665-0.926-0.665-1.555l0.019-0.298
				c0.163-1.747,1.507-2.62,4.035-2.62h1.888V40.002z M183.593,31.951c0.639-1.191,1.677-1.787,3.11-1.787
				c1.036,0,1.771,0.245,2.202,0.736c0.431,0.49,0.646,1.285,0.646,2.382v12.068h5.052l-0.018-13.015
				c0.581-1.447,1.632-2.172,3.146-2.172c1.061,0,1.801,0.249,2.219,0.744c0.419,0.497,0.63,1.282,0.63,2.356v12.086h5.065V33.274
				c0-2.4-0.501-4.196-1.502-5.39c-1.001-1.195-2.528-1.792-4.578-1.792c-2.458,0-4.352,0.961-5.679,2.883
				c-0.909-1.922-2.58-2.883-5.017-2.883c-2.283,0-4.093,0.821-5.434,2.463l-0.159-2.114h-4.733v18.909h5.05V31.951z
				 M209.782,45.351h5.068V26.442h-5.068V45.351z M212.316,24.17c0.852,0,1.535-0.245,2.056-0.733
				c0.517-0.489,0.776-1.119,0.776-1.888c0-0.756-0.257-1.38-0.77-1.87c-0.514-0.489-1.201-0.734-2.063-0.734
				c-0.873,0-1.564,0.245-2.068,0.734c-0.508,0.489-0.762,1.113-0.762,1.87c0,0.77,0.259,1.399,0.777,1.888
				C210.783,23.925,211.467,24.17,212.316,24.17z M226.962,45.701c1.444,0,2.764-0.293,3.958-0.883
				c1.194-0.588,2.136-1.416,2.823-2.482c0.687-1.067,1.036-2.239,1.047-3.521h-4.736c-0.023,0.851-0.324,1.532-0.909,2.044
				c-0.581,0.513-1.339,0.769-2.27,0.769c-1.213,0-2.115-0.425-2.711-1.277c-0.593-0.853-0.89-2.253-0.89-4.201v-0.525
				c0-1.926,0.299-3.316,0.899-4.174c0.6-0.858,1.488-1.287,2.665-1.287c0.956,0,1.725,0.308,2.306,0.922
				c0.585,0.615,0.886,1.415,0.909,2.398h4.736c-0.022-2.237-0.748-4.027-2.177-5.374c-1.425-1.346-3.321-2.018-5.687-2.018
				c-2.704,0-4.831,0.867-6.38,2.604c-1.549,1.737-2.324,4.061-2.324,6.973v0.332c0,3.029,0.78,5.403,2.343,7.121
				C222.126,44.842,224.259,45.701,226.962,45.701z M170.012,52.463l-8.912-0.019l-4.422,25.44h5.121l1.572-8.963l4.823,0.017
				c2.937,0,5.351-0.746,7.244-2.236c1.894-1.491,2.931-3.484,3.119-5.978c0.196-2.458-0.49-4.451-2.063-5.976
				C174.922,53.223,172.761,52.463,170.012,52.463z M173.403,60.76c-0.176,1.211-0.718,2.172-1.627,2.883
				c-0.908,0.711-2.051,1.066-3.425,1.066l-4.264-0.035l1.396-7.985l4.825,0.017c1.106,0.047,1.941,0.432,2.508,1.153
				C173.381,58.581,173.576,59.549,173.403,60.76z M189.41,58.628c-2.318-0.024-4.27,0.526-5.845,1.651
				c-1.58,1.125-2.41,2.59-2.492,4.395l4.945-0.017c0.153-0.757,0.496-1.337,1.032-1.739c0.536-0.401,1.188-0.592,1.957-0.567
				c0.584,0.012,1.05,0.17,1.408,0.48c0.354,0.308,0.562,0.736,0.619,1.283c0.036,0.351,0.017,0.716-0.053,1.102l-0.244,1.136
				l-2.309-0.036c-2.771,0-4.982,0.55-6.631,1.65c-1.649,1.104-2.515,2.685-2.595,4.746c-0.069,1.55,0.439,2.851,1.528,3.904
				c1.089,1.056,2.463,1.595,4.116,1.617c1.794,0.047,3.401-0.64,4.823-2.062c-0.023,0.665,0.042,1.236,0.192,1.712h4.84
				l0.017-0.332c-0.222-0.567-0.319-1.27-0.296-2.096l0.088-1.119l1.451-9.052c0.196-1.935-0.31-3.516-1.522-4.744
				C193.23,59.313,191.553,58.674,189.41,58.628z M189.794,72.556c-1.06,1.281-2.301,1.897-3.723,1.852
				c-0.616-0.011-1.104-0.201-1.46-0.567c-0.354-0.365-0.486-0.865-0.392-1.495c0.07-0.558,0.249-1.029,0.541-1.412
				c0.804-1.063,2.114-1.617,3.933-1.662l1.714,0.019L189.794,72.556z M211.127,58.978l-5.398,11.708l-1.362-11.708h-5.101
				l3.094,18.647l-1.084,2.008c-0.746,1.224-1.922,1.812-3.531,1.766l-0.681-0.035l-0.366,3.845
				c1.037,0.243,1.829,0.369,2.375,0.369c1.4,0,2.632-0.392,3.697-1.172c1.064-0.782,1.993-2.006,2.784-3.671l11.06-21.756H211.127z
				 M238.633,58.628c-2.248-0.047-4.206,0.915-5.873,2.883c-0.266-0.873-0.784-1.566-1.555-2.079
				c-0.768-0.513-1.735-0.781-2.898-0.804c-2.168-0.047-4.016,0.779-5.542,2.481l0.402-2.15l-4.598,0.019l-3.267,18.907h4.927
				l2.362-13.416c1.001-1.214,2.124-1.804,3.372-1.769c1.303,0.034,1.995,0.671,2.079,1.908c0.011,0.375-0.006,0.778-0.054,1.209
				l-2.01,12.068h4.929l2.201-12.614l0.054-0.402c0.966-1.446,2.125-2.169,3.478-2.169c1.316,0.034,2.014,0.666,2.097,1.89
				c0.013,0.374-0.006,0.774-0.052,1.208l-2.009,12.087h4.942l2.011-12.039l0.037-0.438c0.139-2.178-0.231-3.845-1.11-4.998
				S240.368,58.663,238.633,58.628z M256.334,58.628c-1.712-0.047-3.272,0.346-4.682,1.18c-1.41,0.831-2.562,2.016-3.461,3.554
				c-0.896,1.539-1.433,3.229-1.606,5.07l-0.053,0.696c-0.14,1.679,0.104,3.215,0.733,4.605c0.629,1.392,1.582,2.49,2.856,3.286
				c1.276,0.8,2.743,1.203,4.396,1.214c1.538,0.025,2.978-0.265,4.315-0.863c1.34-0.601,2.365-1.438,3.076-2.51l-2.255-2.796
				c-1.35,1.447-2.924,2.144-4.718,2.098c-1.105-0.021-1.982-0.402-2.622-1.136c-0.641-0.733-0.937-1.712-0.89-2.936h11.584
				l0.281-2.152c0.303-2.672-0.174-4.88-1.424-6.625C260.616,59.57,258.771,58.674,256.334,58.628z M258.659,66.195l-0.104,0.453
				h-6.78c0.559-1.467,1.191-2.498,1.896-3.091c0.707-0.596,1.511-0.882,2.42-0.857c0.7,0.011,1.276,0.207,1.73,0.584
				c0.455,0.379,0.739,0.906,0.856,1.583C258.735,65.286,258.729,65.729,258.659,66.195z M277.359,58.628
				c-2.156-0.047-3.991,0.81-5.505,2.567l0.419-2.236l-4.615,0.019l-3.284,18.907h4.929l2.358-13.381
				c1.025-1.249,2.187-1.851,3.478-1.804c1.339,0.034,2.087,0.649,2.237,1.839c0.034,0.373,0.024,0.79-0.033,1.243l-2.029,12.103
				h4.929l1.991-12.022c0.233-2.248-0.075-4.007-0.926-5.277C280.457,59.316,279.141,58.663,277.359,58.628z M292.633,62.681h3.146
				l0.646-3.703h-3.146l0.821-4.649h-4.945l-0.804,4.649h-2.675l-0.646,3.703h2.674l-1.626,9.98
				c-0.139,1.688,0.188,3.028,0.979,4.019c0.791,0.992,1.998,1.496,3.617,1.521c1.013,0.022,1.958-0.111,2.831-0.402l0.35-3.862
				c-0.815,0.068-1.316,0.1-1.502,0.087c-0.63-0.023-1.026-0.193-1.19-0.507c-0.163-0.314-0.208-0.77-0.138-1.361L292.633,62.681z"
				/>
		</g>
	</g>
</g>
</svg>
