<?xml version="1.0" encoding="utf-8"?>
<!-- Generator: Adobe Illustrator 23.0.0, SVG Export Plug-In . SVG Version: 6.00 Build 0)  -->
<svg version="1.1" id="Capa_1" xmlns="http://www.w3.org/2000/svg" xmlns:xlink="http://www.w3.org/1999/xlink" x="0px" y="0px"
	 viewBox="0 0 512 512" style="enable-background:new 0 0 512 512;" xml:space="preserve">
<style type="text/css">
	.st0{fill:#FFFFFF;}
</style>
<g>
	<g>
		<path class="st0" d="M192,32C86,32,0,103.6,0,192c0,50.9,28.7,96.1,73.3,125.4L48,368l69-29.5c14.8,5.2,30.1,9.6,46.6,11.6
			c-2.2-9.8-3.5-19.8-3.5-30c0-88.2,86.1-160,192-160c9.7,0,19.2,0.8,28.5,2C363.6,88,285.7,32,192,32z M128,152
			c-13.2,0-24-10.8-24-24s10.8-24,24-24s24,10.8,24,24S141.2,152,128,152z M256,152c-13.2,0-24-10.8-24-24s10.8-24,24-24
			c13.2,0,24,10.8,24,24S269.2,152,256,152z"/>
	</g>
</g>
<g>
	<g>
		<path class="st0" d="M512,320c0-70.7-71.6-128-160-128s-160,57.3-160,128s71.6,128,160,128c14.5,0,28.4-2,41.8-5l86.2,37
			l-29.8-59.6C487.6,397,512,360.9,512,320z M304,312c-13.2,0-24-10.8-24-24s10.8-24,24-24s24,10.8,24,24S317.2,312,304,312z
			 M400,312c-13.2,0-24-10.8-24-24s10.8-24,24-24s24,10.8,24,24S413.2,312,400,312z"/>
	</g>
</g>
</svg>
