<?xml version="1.0" encoding="utf-8"?>
<!-- Generator: Adobe Illustrator 14.0.0, SVG Export Plug-In . SVG Version: 6.00 Build 43363)  -->
<!DOCTYPE svg PUBLIC "-//W3C//DTD SVG 1.1//EN" "http://www.w3.org/Graphics/SVG/1.1/DTD/svg11.dtd">
<svg version="1.1" id="Layer_1" xmlns="http://www.w3.org/2000/svg" xmlns:xlink="http://www.w3.org/1999/xlink" x="0px" y="0px"
	 width="20px" height="20px" viewBox="0 0 20 20" enable-background="new 0 0 20 20" xml:space="preserve">
<title>alert</title>
<path fill="#FFFFFF" d="M19.641,16.359L11.529,2.3C11.256,1.686,10.67,1.268,10,1.21C9.333,1.271,8.752,1.688,8.48,2.3l-8.12,14.06
	C-0.48,17.811,0.21,19,1.88,19h16.24C19.79,19,20.48,17.811,19.641,16.359z M11.182,17.189H8.819v-2.362h2.363V17.189z
	 M11.182,12.465H8.819V5.377h2.363V12.465z"/>
</svg>
