<?xml version="1.0" encoding="utf-8"?>
<!-- Generator: Adobe Illustrator 14.0.0, SVG Export Plug-In . SVG Version: 6.00 Build 43363)  -->
<!DOCTYPE svg PUBLIC "-//W3C//DTD SVG 1.1//EN" "http://www.w3.org/Graphics/SVG/1.1/DTD/svg11.dtd">
<svg version="1.1" id="Layer_1" xmlns="http://www.w3.org/2000/svg" xmlns:xlink="http://www.w3.org/1999/xlink" x="0px" y="0px"
	 width="300px" height="89.451px" viewBox="0 0 300 89.451" enable-background="new 0 0 300 89.451" xml:space="preserve">
<g>
	<path fill="#6A6A6A" d="M30.653,64.563V60.38h27.89v26.262c0,0-22.776,0-34.861,0c-12.084,0-20.218-13.479-20.218-25.332
		c0-11.853,10.457-25.099,21.146-25.099c10.69,0,32.536,0,36.721,0c4.184,0,4.881-4.183,4.881-6.972c0-2.789-1.86-6.74-7.901-6.74
		v7.437H35.069V3.442c0,0,20.218,0,30.445,0c10.224,0,20.451,8.831,20.451,26.727C85.965,48.063,69,55.5,65.747,55.5
		c-3.254,0-30.679,0-36.024,0c-5.345,0-7.204,3.718-7.204,7.437c0,3.717,2.789,6.972,7.204,6.972c4.417,0,6.74,0,6.74,0v-5.112
		L30.653,64.563z"/>
	<g>
		<g>
			<path fill="#6A6A6A" d="M112.249,21.418c-1.767-1.009-3.767-1.512-6.003-1.512h-7.829v25.444h7.882
				c2.224-0.013,4.223-0.524,5.994-1.539c1.771-1.014,3.143-2.441,4.115-4.281c0.973-1.84,1.459-3.944,1.459-6.31V32.05
				c0-2.364-0.495-4.476-1.486-6.334C115.392,23.858,114.014,22.425,112.249,21.418z M112.555,33.38
				c-0.022,2.493-0.578,4.41-1.661,5.75s-2.648,2.01-4.7,2.01h-2.533V24.152h2.585c2.063,0,3.629,0.668,4.701,2.001
				c1.072,1.334,1.608,3.294,1.608,5.881V33.38z M128.405,38.203l-3.513-11.761h-5.435l6.624,18.961l-0.595,1.558
				c-0.269,0.679-0.639,1.161-1.109,1.454c-0.473,0.292-1.187,0.436-2.142,0.436l-0.769-0.017v3.824
				c0.757,0.222,1.503,0.332,2.236,0.332c2.599,0,4.462-1.233,5.593-3.701l0.419-0.997l7.602-21.848H131.9L128.405,38.203z
				 M149.55,26.093c-2.272,0-4.083,0.845-5.437,2.533l-0.156-2.184h-4.753v18.909h5.05V31.985c0.711-1.213,1.778-1.821,3.199-1.821
				c1.083,0,1.856,0.243,2.323,0.727s0.699,1.265,0.699,2.339v12.121h5.051V33.135c-0.022-2.342-0.524-4.101-1.503-5.277
				C153.047,26.681,151.555,26.093,149.55,26.093z M167.271,33.798c-2.809,0.013-4.953,0.555-6.438,1.625
				c-1.485,1.073-2.229,2.611-2.229,4.613c0,1.632,0.609,2.983,1.827,4.055c1.218,1.072,2.752,1.608,4.605,1.608
				c1.958,0,3.548-0.681,4.771-2.045c0.104,0.676,0.272,1.24,0.507,1.695h5.102v-0.297c-0.488-0.92-0.738-2.279-0.751-4.073v-8.195
				c0-2.121-0.686-3.767-2.052-4.938c-1.37-1.17-3.22-1.755-5.55-1.755c-1.539,0-2.924,0.265-4.16,0.795
				c-1.232,0.529-2.189,1.261-2.864,2.192c-0.678,0.932-1.015,1.946-1.015,3.041h5.051c0-0.711,0.241-1.271,0.726-1.678
				c0.481-0.408,1.149-0.611,2.001-0.611c0.966,0,1.675,0.262,2.123,0.786c0.448,0.524,0.672,1.224,0.672,2.098v1.083
				L167.271,33.798L167.271,33.798z M169.594,40.002c-0.302,0.56-0.768,1.005-1.397,1.337c-0.629,0.333-1.315,0.498-2.062,0.498
				c-0.771,0-1.375-0.204-1.817-0.611c-0.442-0.408-0.665-0.926-0.665-1.555l0.02-0.298c0.163-1.747,1.507-2.62,4.035-2.62h1.888
				L169.594,40.002L169.594,40.002z M183.593,31.951c0.639-1.191,1.677-1.787,3.11-1.787c1.035,0,1.771,0.245,2.201,0.736
				c0.432,0.49,0.646,1.285,0.646,2.382v12.068h5.052l-0.018-13.016c0.581-1.447,1.632-2.172,3.146-2.172
				c1.062,0,1.801,0.249,2.22,0.744c0.419,0.497,0.63,1.282,0.63,2.356v12.085h5.064V33.274c0-2.4-0.501-4.196-1.502-5.39
				c-1.001-1.195-2.528-1.792-4.578-1.792c-2.458,0-4.352,0.961-5.679,2.883c-0.909-1.922-2.58-2.883-5.017-2.883
				c-2.283,0-4.094,0.821-5.435,2.463l-0.159-2.114h-4.732v18.91h5.05V31.951L183.593,31.951z M209.782,45.351h5.067V26.442h-5.067
				V45.351z M212.316,24.17c0.853,0,1.535-0.245,2.057-0.733c0.517-0.489,0.775-1.119,0.775-1.888c0-0.756-0.257-1.38-0.77-1.87
				c-0.515-0.489-1.201-0.734-2.063-0.734c-0.873,0-1.563,0.245-2.067,0.734c-0.509,0.489-0.763,1.113-0.763,1.87
				c0,0.77,0.26,1.399,0.777,1.888C210.783,23.925,211.467,24.17,212.316,24.17z M226.962,45.701c1.443,0,2.764-0.293,3.958-0.883
				c1.193-0.588,2.136-1.416,2.823-2.482c0.687-1.067,1.035-2.239,1.047-3.521h-4.736c-0.023,0.851-0.324,1.532-0.909,2.044
				c-0.581,0.513-1.339,0.769-2.27,0.769c-1.213,0-2.115-0.425-2.711-1.277c-0.594-0.853-0.891-2.253-0.891-4.201v-0.525
				c0-1.926,0.299-3.316,0.899-4.174c0.6-0.858,1.488-1.287,2.665-1.287c0.956,0,1.725,0.308,2.306,0.922
				c0.585,0.615,0.886,1.415,0.909,2.398h4.736c-0.022-2.237-0.748-4.027-2.178-5.374c-1.425-1.346-3.32-2.018-5.687-2.018
				c-2.704,0-4.831,0.867-6.38,2.604c-1.549,1.737-2.324,4.061-2.324,6.973v0.332c0,3.029,0.78,5.403,2.343,7.121
				C222.126,44.842,224.259,45.701,226.962,45.701z M170.012,52.463l-8.912-0.019l-4.422,25.439h5.121l1.572-8.963l4.822,0.018
				c2.938,0,5.352-0.746,7.244-2.236c1.895-1.491,2.932-3.484,3.119-5.979c0.196-2.457-0.49-4.451-2.063-5.976
				S172.761,52.463,170.012,52.463z M173.403,60.76c-0.176,1.212-0.718,2.173-1.627,2.884c-0.907,0.711-2.051,1.065-3.425,1.065
				l-4.264-0.035l1.396-7.985l4.825,0.018c1.106,0.047,1.941,0.432,2.508,1.152C173.381,58.581,173.576,59.549,173.403,60.76z
				 M189.41,58.628c-2.318-0.023-4.271,0.525-5.846,1.65c-1.58,1.125-2.41,2.591-2.492,4.396l4.945-0.017
				c0.153-0.758,0.496-1.338,1.032-1.739s1.188-0.592,1.957-0.567c0.584,0.012,1.05,0.17,1.408,0.48
				c0.354,0.309,0.562,0.736,0.619,1.283c0.035,0.351,0.017,0.716-0.054,1.102l-0.244,1.137l-2.309-0.037
				c-2.771,0-4.982,0.551-6.631,1.65c-1.649,1.104-2.515,2.686-2.595,4.746c-0.069,1.551,0.438,2.852,1.527,3.904
				c1.089,1.056,2.463,1.595,4.116,1.617c1.794,0.047,3.401-0.641,4.823-2.063c-0.023,0.665,0.042,1.236,0.191,1.712h4.841
				l0.017-0.332c-0.222-0.567-0.319-1.27-0.296-2.096l0.088-1.119l1.451-9.052c0.196-1.936-0.311-3.516-1.522-4.744
				C193.23,59.313,191.553,58.674,189.41,58.628z M189.794,72.556c-1.061,1.281-2.301,1.897-3.724,1.853
				c-0.615-0.011-1.104-0.201-1.46-0.567c-0.354-0.365-0.485-0.865-0.392-1.494c0.07-0.559,0.249-1.029,0.541-1.412
				c0.804-1.063,2.114-1.617,3.933-1.662l1.715,0.019L189.794,72.556z M211.127,58.978l-5.398,11.709l-1.361-11.709h-5.102
				l3.094,18.647l-1.084,2.008c-0.746,1.224-1.922,1.812-3.53,1.767l-0.682-0.035l-0.366,3.845c1.037,0.243,1.829,0.369,2.375,0.369
				c1.4,0,2.633-0.392,3.697-1.172c1.064-0.782,1.993-2.007,2.784-3.671l11.06-21.756h-5.486V58.978z M238.633,58.628
				c-2.248-0.047-4.206,0.915-5.873,2.883c-0.266-0.873-0.784-1.566-1.555-2.078c-0.769-0.514-1.735-0.781-2.898-0.805
				c-2.168-0.047-4.016,0.779-5.542,2.48l0.402-2.149l-4.599,0.019l-3.267,18.907h4.927l2.362-13.416
				c1.001-1.214,2.124-1.804,3.372-1.769c1.303,0.033,1.995,0.671,2.079,1.908c0.011,0.375-0.006,0.777-0.055,1.209l-2.01,12.067
				h4.93l2.2-12.614l0.055-0.401c0.966-1.446,2.125-2.169,3.478-2.169c1.316,0.033,2.014,0.666,2.097,1.89
				c0.014,0.374-0.006,0.774-0.052,1.208l-2.009,12.087h4.942l2.011-12.038l0.037-0.438c0.139-2.179-0.231-3.845-1.11-4.998
				S240.368,58.663,238.633,58.628z M256.334,58.628c-1.712-0.047-3.272,0.346-4.683,1.18c-1.409,0.832-2.562,2.017-3.461,3.555
				c-0.896,1.539-1.433,3.229-1.605,5.07l-0.053,0.695c-0.141,1.68,0.104,3.215,0.732,4.605c0.629,1.392,1.582,2.49,2.856,3.285
				c1.275,0.801,2.742,1.203,4.396,1.215c1.538,0.024,2.979-0.266,4.315-0.863c1.34-0.602,2.364-1.438,3.076-2.51l-2.256-2.797
				c-1.35,1.447-2.924,2.145-4.718,2.099c-1.104-0.021-1.981-0.402-2.622-1.136s-0.937-1.713-0.89-2.937h11.584l0.281-2.151
				c0.303-2.672-0.175-4.881-1.425-6.625C260.616,59.569,258.771,58.674,256.334,58.628z M258.659,66.194l-0.104,0.453h-6.78
				c0.56-1.467,1.191-2.498,1.896-3.09c0.707-0.597,1.511-0.883,2.42-0.857c0.7,0.011,1.276,0.207,1.729,0.584
				c0.455,0.379,0.739,0.906,0.856,1.583C258.735,65.286,258.729,65.729,258.659,66.194z M277.359,58.628
				c-2.155-0.047-3.99,0.811-5.505,2.566l0.419-2.235l-4.614,0.019l-3.284,18.907h4.929l2.358-13.381
				c1.024-1.249,2.187-1.851,3.478-1.804c1.339,0.033,2.087,0.648,2.237,1.839c0.034,0.373,0.023,0.79-0.033,1.243l-2.029,12.103
				h4.93l1.99-12.022c0.233-2.247-0.074-4.006-0.926-5.276C280.457,59.315,279.141,58.663,277.359,58.628z M292.633,62.681h3.146
				l0.646-3.703h-3.146l0.821-4.648h-4.945l-0.804,4.648h-2.675l-0.646,3.703h2.675l-1.626,9.98c-0.14,1.688,0.188,3.027,0.979,4.02
				c0.791,0.991,1.998,1.495,3.617,1.521c1.013,0.022,1.958-0.111,2.831-0.402l0.35-3.862c-0.814,0.068-1.315,0.101-1.502,0.088
				c-0.63-0.023-1.025-0.193-1.189-0.508c-0.163-0.313-0.208-0.77-0.139-1.36L292.633,62.681z"/>
		</g>
	</g>
</g>
</svg>
